^C:\USERS\АННА\SOURCE\REPOS\HW16\HW16\HW16.CPP
C:\WINDOWS\GLOBALIZATION\SORTING\SORTDEFAULT.NLS
D:\ЗУ\1\VC\TOOLS\MSVC\14.36.32532\BIN\HOSTX64\X64\1033\CLUI.DLL
C:\WINDOWS\SYSTEM32\TZRES.DLL
D:\ЗУ\1\VC\TOOLS\MSVC\14.36.32532\INCLUDE\IOSTREAM
D:\ЗУ\1\VC\TOOLS\MSVC\14.36.32532\INCLUDE\YVALS_CORE.H
D:\ЗУ\1\VC\TOOLS\MSVC\14.36.32532\INCLUDE\VCRUNTIME.H
D:\ЗУ\1\VC\TOOLS\MSVC\14.36.32532\INCLUDE\SAL.H
D:\ЗУ\1\VC\TOOLS\MSVC\14.36.32532\INCLUDE\CONCURRENCYSAL.H
D:\ЗУ\1\VC\TOOLS\MSVC\14.36.32532\INCLUDE\VADEFS.H
D:\ЗУ\1\VC\TOOLS\MSVC\14.36.32532\INCLUDE\XKEYCHECK.H
D:\ЗУ\1\VC\TOOLS\MSVC\14.36.32532\INCLUDE\ISTREAM
D:\ЗУ\1\VC\TOOLS\MSVC\14.36.32532\INCLUDE\OSTREAM
D:\ЗУ\1\VC\TOOLS\MSVC\14.36.32532\INCLUDE\IOS
D:\ЗУ\1\VC\TOOLS\MSVC\14.36.32532\INCLUDE\XLOCNUM
D:\ЗУ\1\VC\TOOLS\MSVC\14.36.32532\INCLUDE\CLIMITS
D:\ЗУ\1\VC\TOOLS\MSVC\14.36.32532\INCLUDE\LIMITS.H
D:\ЗУ\1\VC\TOOLS\MSVC\14.36.32532\INCLUDE\CMATH
D:\ЗУ\1\VC\TOOLS\MSVC\14.36.32532\INCLUDE\YVALS.H
D:\WINDOWS KITS\10\INCLUDE\10.0.22621.0\UCRT\CRTDBG.H
D:\WINDOWS KITS\10\INCLUDE\10.0.22621.0\UCRT\CORECRT.H
D:\ЗУ\1\VC\TOOLS\MSVC\14.36.32532\INCLUDE\VCRUNTIME_NEW_DEBUG.H
D:\ЗУ\1\VC\TOOLS\MSVC\14.36.32532\INCLUDE\VCRUNTIME_NEW.H
D:\ЗУ\1\VC\TOOLS\MSVC\14.36.32532\INCLUDE\CRTDEFS.H
D:\ЗУ\1\VC\TOOLS\MSVC\14.36.32532\INCLUDE\USE_ANSI.H
D:\ЗУ\1\VC\TOOLS\MSVC\14.36.32532\INCLUDE\CSTDLIB
D:\WINDOWS KITS\10\INCLUDE\10.0.22621.0\UCRT\MATH.H
D:\WINDOWS KITS\10\INCLUDE\10.0.22621.0\UCRT\CORECRT_MATH.H
D:\WINDOWS KITS\10\INCLUDE\10.0.22621.0\UCRT\STDLIB.H
D:\WINDOWS KITS\10\INCLUDE\10.0.22621.0\UCRT\CORECRT_MALLOC.H
D:\WINDOWS KITS\10\INCLUDE\10.0.22621.0\UCRT\CORECRT_SEARCH.H
D:\WINDOWS KITS\10\INCLUDE\10.0.22621.0\UCRT\STDDEF.H
D:\WINDOWS KITS\10\INCLUDE\10.0.22621.0\UCRT\CORECRT_WSTDLIB.H
D:\ЗУ\1\VC\TOOLS\MSVC\14.36.32532\INCLUDE\XTR1COMMON
D:\ЗУ\1\VC\TOOLS\MSVC\14.36.32532\INCLUDE\INTRIN0.H
D:\ЗУ\1\VC\TOOLS\MSVC\14.36.32532\INCLUDE\INTRIN0.INL.H
D:\ЗУ\1\VC\TOOLS\MSVC\14.36.32532\INCLUDE\CSTDIO
D:\WINDOWS KITS\10\INCLUDE\10.0.22621.0\UCRT\STDIO.H
D:\WINDOWS KITS\10\INCLUDE\10.0.22621.0\UCRT\CORECRT_WSTDIO.H
D:\WINDOWS KITS\10\INCLUDE\10.0.22621.0\UCRT\CORECRT_STDIO_CONFIG.H
D:\ЗУ\1\VC\TOOLS\MSVC\14.36.32532\INCLUDE\ITERATOR
D:\ЗУ\1\VC\TOOLS\MSVC\14.36.32532\INCLUDE\IOSFWD
D:\ЗУ\1\VC\TOOLS\MSVC\14.36.32532\INCLUDE\CSTRING
D:\WINDOWS KITS\10\INCLUDE\10.0.22621.0\UCRT\STRING.H
D:\WINDOWS KITS\10\INCLUDE\10.0.22621.0\UCRT\CORECRT_MEMORY.H
D:\WINDOWS KITS\10\INCLUDE\10.0.22621.0\UCRT\CORECRT_MEMCPY_S.H
D:\WINDOWS KITS\10\INCLUDE\10.0.22621.0\UCRT\ERRNO.H
D:\ЗУ\1\VC\TOOLS\MSVC\14.36.32532\INCLUDE\VCRUNTIME_STRING.H
D:\WINDOWS KITS\10\INCLUDE\10.0.22621.0\UCRT\CORECRT_WSTRING.H
D:\ЗУ\1\VC\TOOLS\MSVC\14.36.32532\INCLUDE\CWCHAR
D:\WINDOWS KITS\10\INCLUDE\10.0.22621.0\UCRT\WCHAR.H
D:\WINDOWS KITS\10\INCLUDE\10.0.22621.0\UCRT\CORECRT_WCONIO.H
D:\WINDOWS KITS\10\INCLUDE\10.0.22621.0\UCRT\CORECRT_WCTYPE.H
D:\WINDOWS KITS\10\INCLUDE\10.0.22621.0\UCRT\CORECRT_WDIRECT.H
D:\WINDOWS KITS\10\INCLUDE\10.0.22621.0\UCRT\CORECRT_WIO.H
D:\WINDOWS KITS\10\INCLUDE\10.0.22621.0\UCRT\CORECRT_SHARE.H
D:\WINDOWS KITS\10\INCLUDE\10.0.22621.0\UCRT\CORECRT_WPROCESS.H
D:\WINDOWS KITS\10\INCLUDE\10.0.22621.0\UCRT\CORECRT_WTIME.H
D:\WINDOWS KITS\10\INCLUDE\10.0.22621.0\UCRT\SYS\STAT.H
D:\WINDOWS KITS\10\INCLUDE\10.0.22621.0\UCRT\SYS\TYPES.H
D:\ЗУ\1\VC\TOOLS\MSVC\14.36.32532\INCLUDE\XSTDDEF
D:\ЗУ\1\VC\TOOLS\MSVC\14.36.32532\INCLUDE\CSTDDEF
D:\ЗУ\1\VC\TOOLS\MSVC\14.36.32532\INCLUDE\INITIALIZER_LIST
D:\ЗУ\1\VC\TOOLS\MSVC\14.36.32532\INCLUDE\XUTILITY
D:\ЗУ\1\VC\TOOLS\MSVC\14.36.32532\INCLUDE\__MSVC_ITER_CORE.HPP
D:\ЗУ\1\VC\TOOLS\MSVC\14.36.32532\INCLUDE\UTILITY
D:\ЗУ\1\VC\TOOLS\MSVC\14.36.32532\INCLUDE\TYPE_TRAITS
D:\ЗУ\1\VC\TOOLS\MSVC\14.36.32532\INCLUDE\CSTDINT
D:\ЗУ\1\VC\TOOLS\MSVC\14.36.32532\INCLUDE\STDINT.H
D:\ЗУ\1\VC\TOOLS\MSVC\14.36.32532\INCLUDE\STREAMBUF
D:\ЗУ\1\VC\TOOLS\MSVC\14.36.32532\INCLUDE\XIOSBASE
D:\WINDOWS KITS\10\INCLUDE\10.0.22621.0\UCRT\SHARE.H
D:\ЗУ\1\VC\TOOLS\MSVC\14.36.32532\INCLUDE\SYSTEM_ERROR
D:\ЗУ\1\VC\TOOLS\MSVC\14.36.32532\INCLUDE\__MSVC_SYSTEM_ERROR_ABI.HPP
D:\ЗУ\1\VC\TOOLS\MSVC\14.36.32532\INCLUDE\CERRNO
D:\ЗУ\1\VC\TOOLS\MSVC\14.36.32532\INCLUDE\STDEXCEPT
D:\ЗУ\1\VC\TOOLS\MSVC\14.36.32532\INCLUDE\EXCEPTION
D:\WINDOWS KITS\10\INCLUDE\10.0.22621.0\UCRT\MALLOC.H
D:\ЗУ\1\VC\TOOLS\MSVC\14.36.32532\INCLUDE\VCRUNTIME_EXCEPTION.H
D:\ЗУ\1\VC\TOOLS\MSVC\14.36.32532\INCLUDE\EH.H
D:\WINDOWS KITS\10\INCLUDE\10.0.22621.0\UCRT\CORECRT_TERMINATE.H
D:\ЗУ\1\VC\TOOLS\MSVC\14.36.32532\INCLUDE\XSTRING
D:\ЗУ\1\VC\TOOLS\MSVC\14.36.32532\INCLUDE\XMEMORY
D:\ЗУ\1\VC\TOOLS\MSVC\14.36.32532\INCLUDE\LIMITS
D:\ЗУ\1\VC\TOOLS\MSVC\14.36.32532\INCLUDE\CFLOAT
D:\WINDOWS KITS\10\INCLUDE\10.0.22621.0\UCRT\FLOAT.H
D:\ЗУ\1\VC\TOOLS\MSVC\14.36.32532\INCLUDE\ISA_AVAILABILITY.H
D:\ЗУ\1\VC\TOOLS\MSVC\14.36.32532\INCLUDE\NEW
D:\ЗУ\1\VC\TOOLS\MSVC\14.36.32532\INCLUDE\XATOMIC.H
D:\ЗУ\1\VC\TOOLS\MSVC\14.36.32532\INCLUDE\__MSVC_SANITIZER_ANNOTATE_CONTAINER.HPP
D:\ЗУ\1\VC\TOOLS\MSVC\14.36.32532\INCLUDE\XCALL_ONCE.H
D:\ЗУ\1\VC\TOOLS\MSVC\14.36.32532\INCLUDE\XERRC.H
D:\ЗУ\1\VC\TOOLS\MSVC\14.36.32532\INCLUDE\ATOMIC
D:\ЗУ\1\VC\TOOLS\MSVC\14.36.32532\INCLUDE\XTHREADS.H
D:\ЗУ\1\VC\TOOLS\MSVC\14.36.32532\INCLUDE\XTIMEC.H
D:\ЗУ\1\VC\TOOLS\MSVC\14.36.32532\INCLUDE\CTIME
D:\WINDOWS KITS\10\INCLUDE\10.0.22621.0\UCRT\TIME.H
D:\ЗУ\1\VC\TOOLS\MSVC\14.36.32532\INCLUDE\XLOCALE
D:\ЗУ\1\VC\TOOLS\MSVC\14.36.32532\INCLUDE\MEMORY
D:\ЗУ\1\VC\TOOLS\MSVC\14.36.32532\INCLUDE\TYPEINFO
D:\ЗУ\1\VC\TOOLS\MSVC\14.36.32532\INCLUDE\VCRUNTIME_TYPEINFO.H
D:\ЗУ\1\VC\TOOLS\MSVC\14.36.32532\INCLUDE\XFACET
D:\ЗУ\1\VC\TOOLS\MSVC\14.36.32532\INCLUDE\XLOCINFO
D:\ЗУ\1\VC\TOOLS\MSVC\14.36.32532\INCLUDE\__MSVC_XLOCINFO_TYPES.HPP
D:\ЗУ\1\VC\TOOLS\MSVC\14.36.32532\INCLUDE\CCTYPE
D:\WINDOWS KITS\10\INCLUDE\10.0.22621.0\UCRT\CTYPE.H
D:\ЗУ\1\VC\TOOLS\MSVC\14.36.32532\INCLUDE\CLOCALE
D:\WINDOWS KITS\10\INCLUDE\10.0.22621.0\UCRT\LOCALE.H
